module gitlab.com/bable5/rq

go 1.17

require (
	github.com/mitchellh/go-homedir v1.1.0
	github.com/prometheus/common v0.26.0
	github.com/satori/go.uuid v1.2.1-0.20181028125025-b2ce2384e17b
	github.com/spf13/cobra v1.5.0
	github.com/spf13/viper v1.12.0
)

require (
	github.com/alecthomas/template v0.0.0-20190718012654-fb15b899a751 // indirect
	github.com/alecthomas/units v0.0.0-20190924025748-f65c72e2690d // indirect
	github.com/fsnotify/fsnotify v1.5.4 // indirect
	github.com/hashicorp/hcl v1.0.0 // indirect
	github.com/inconshreveable/mousetrap v1.0.0 // indirect
	github.com/konsorten/go-windows-terminal-sequences v1.0.3 // indirect
	github.com/magiconair/properties v1.8.6 // indirect
	github.com/mitchellh/mapstructure v1.5.0 // indirect
	github.com/pelletier/go-toml v1.9.5 // indirect
	github.com/pelletier/go-toml/v2 v2.0.1 // indirect
	github.com/sirupsen/logrus v1.6.0 // indirect
	github.com/spf13/afero v1.8.2 // indirect
	github.com/spf13/cast v1.5.0 // indirect
	github.com/spf13/jwalterweatherman v1.1.0 // indirect
	github.com/spf13/pflag v1.0.5 // indirect
	github.com/subosito/gotenv v1.3.0 // indirect
	golang.org/x/sys v0.0.0-20220520151302-bc2c85ada10a // indirect
	golang.org/x/text v0.3.7 // indirect
	gopkg.in/alecthomas/kingpin.v2 v2.2.6 // indirect
	gopkg.in/ini.v1 v1.66.4 // indirect
	gopkg.in/yaml.v2 v2.4.0 // indirect
	gopkg.in/yaml.v3 v3.0.0 // indirect
)
